…
Problem 1 uses the Instacart Online Grocery Shopping Dataset from 2017,
loaded from the course datasets, and not from my local data directory
for the p8105\_hw3\_niz20000 project.

## Load the Instacart Dataset

The first step for problem 1 is to load the instacart dataset.

``` r
library(p8105.datasets)
data("instacart")
instacart
```

    ## # A tibble: 1,384,617 x 15
    ##    order_id product_id add_to_cart_ord… reordered user_id eval_set
    ##       <int>      <int>            <int>     <int>   <int> <chr>   
    ##  1        1      49302                1         1  112108 train   
    ##  2        1      11109                2         1  112108 train   
    ##  3        1      10246                3         0  112108 train   
    ##  4        1      49683                4         0  112108 train   
    ##  5        1      43633                5         1  112108 train   
    ##  6        1      13176                6         0  112108 train   
    ##  7        1      47209                7         0  112108 train   
    ##  8        1      22035                8         1  112108 train   
    ##  9       36      39612                1         0   79431 train   
    ## 10       36      19660                2         1   79431 train   
    ## # … with 1,384,607 more rows, and 9 more variables: order_number <int>,
    ## #   order_dow <int>, order_hour_of_day <int>,
    ## #   days_since_prior_order <int>, product_name <chr>, aisle_id <int>,
    ## #   department_id <int>, aisle <chr>, department <chr>
…
This next step answers the question how many aisles there are in the
instacart data, as well as which aisles the most items are ordered from.
This involved finding the total number of items ordered per aisle, and
ordering the aisles by descending, where the aisle with the most items
ordered is at the top and the aisle with the least items ordered is at
the bottom.

``` r
aisles = instacart %>%
  count(aisle)  %>%
  arrange(desc(n)) 
aisles
```

    ## # A tibble: 134 x 2
    ##    aisle                              n
    ##    <chr>                          <int>
    ##  1 fresh vegetables              150609
    ##  2 fresh fruits                  150473
    ##  3 packaged vegetables fruits     78493
    ##  4 yogurt                         55240
    ##  5 packaged cheese                41699
    ##  6 water seltzer sparkling water  36617
    ##  7 milk                           32644
    ##  8 chips pretzels                 31269
    ##  9 soy lactosefree                26240
    ## 10 bread                          23635
    ## # … with 124 more rows
…
brfss = brfss_smart2010 %>%
  janitor::clean_names() %>%
  filter(topic == "Overall Health") %>%
  select(-data_value_footnote_symbol, -data_value_footnote, -location_id) %>%
  drop_na(response) %>%
  mutate(response = as.factor(response),
         response = factor(response,
                           levels = c("Poor", "Fair", "Good", "Very good", "Excellent"))) %>%
  rename(
    location_state= locationabbr,
    location_county= locationdesc)
brfss
```

    ## # A tibble: 10,625 x 20
    ##     year location_state location_county class topic question response
    ##    <int> <chr>          <chr>           <chr> <chr> <chr>    <fct>   
    ##  1  2010 AL             AL - Jefferson… Heal… Over… How is … Excelle…
    ##  2  2010 AL             AL - Jefferson… Heal… Over… How is … Very go…
    ##  3  2010 AL             AL - Jefferson… Heal… Over… How is … Good    
    ##  4  2010 AL             AL - Jefferson… Heal… Over… How is … Fair    
    ##  5  2010 AL             AL - Jefferson… Heal… Over… How is … Poor    
    ##  6  2010 AL             AL - Mobile Co… Heal… Over… How is … Excelle…
    ##  7  2010 AL             AL - Mobile Co… Heal… Over… How is … Very go…
    ##  8  2010 AL             AL - Mobile Co… Heal… Over… How is … Good    
    ##  9  2010 AL             AL - Mobile Co… Heal… Over… How is … Fair    
    ## 10  2010 AL             AL - Mobile Co… Heal… Over… How is … Poor    
    ## # … with 10,615 more rows, and 13 more variables: sample_size <int>,
    ## #   data_value <dbl>, confidence_limit_low <dbl>,
    ## #   confidence_limit_high <dbl>, display_order <int>,
    ## #   data_value_unit <chr>, data_value_type <chr>, data_source <chr>,
    ## #   class_id <chr>, topic_id <chr>, question_id <chr>, respid <chr>,
    ## #   geo_location <chr>
…
    ## Parsed with column specification:
    ## cols(
    ##   .default = col_double(),
    ##   day = col_character()
    ## )

    ## See spec(...) for full column specifications.

``` r
accelerometer
```

    ## # A tibble: 35 x 1,444
    ##     week day_number day_of_the_week day_type activity_1 activity_2
    ##    <dbl>      <dbl> <chr>           <chr>         <dbl>      <dbl>
    ##  1     1          1 Friday          Weekday        88.4       82.2
    ##  2     1          2 Monday          Weekday         1          1  
    ##  3     1          3 Saturday        Weekend         1          1  
    ##  4     1          4 Sunday          Weekend         1          1  
    ##  5     1          5 Thursday        Weekday        47.4       48.8
    ##  6     1          6 Tuesday         Weekday        64.8       59.5
    ##  7     1          7 Wednesday       Weekday        71.1      103. 
    ##  8     2          8 Friday          Weekday       675        542  
    ##  9     2          9 Monday          Weekday       291        335  
    ## 10     2         10 Saturday        Weekend        64         11  
    ## # … with 25 more rows, and 1,438 more variables: activity_3 <dbl>,
    ## #   activity_4 <dbl>, activity_5 <dbl>, activity_6 <dbl>,
    ## #   activity_7 <dbl>, activity_8 <dbl>, activity_9 <dbl>,
    ## #   activity_10 <dbl>, activity_11 <dbl>, activity_12 <dbl>,
    ## #   activity_13 <dbl>, activity_14 <dbl>, activity_15 <dbl>,
    ## #   activity_16 <dbl>, activity_17 <dbl>, activity_18 <dbl>,
    ## #   activity_19 <dbl>, activity_20 <dbl>, activity_21 <dbl>,
    ## #   activity_22 <dbl>, activity_23 <dbl>, activity_24 <dbl>,
    ## #   activity_25 <dbl>, activity_26 <dbl>, activity_27 <dbl>,
…
